<?xml version="1.0" encoding="UTF-8"?>
<OAI-PMH xmlns="http://www.openarchives.org/OAI/2.0/" xmlns:xsi="http://www.w3.org/2001/XMLSchema-instance"
         xsi:schemaLocation="http://www.openarchives.org/OAI/2.0/ http://www.openarchives.org/OAI/2.0/OAI-PMH.xsd">
    <responseDate>2013-02-27T09:10:56Z</responseDate>
    <request metadataPrefix="oai_dc" verb="ListRecords">http://test.example.com/oai</request>
    <ListRecords>
        <record>
            <header status="deleted">
                <identifier>oai:test.example.com:1585310</identifier>
                <datestamp>2011-07-18T16:31:00Z</datestamp>
            </header>
        </record>
        <record>
            <header>
                <identifier>oai:test.example.com:1585322</identifier>
                <datestamp>2011-01-10T10:19:23Z</datestamp>
            </header>
            <metadata>
                <metadata xmlns="http://www.lyncode.com/xoai" xmlns:xsi="http://www.w3.org/2001/XMLSchema-instance"
                          xsi:schemaLocation="http://www.lyncode.com/xoai http://www.lyncode.com/xsd/xoai.xsd">
                    <element name="dc">
                        <element name="title">
                            <field name="value">Testovací záznam</field>
                        </element>
                        <element name="unhandled">
                            <field name="value">Bla</field>
                        </element>
                    </element>
                </metadata>
            </metadata>
        </record>
        <resumptionToken completeListSize="8" cursor="0">ListRecords4.xml</resumptionToken>
    </ListRecords>
</OAI-PMH>